28

30 180
3
t 1 67 s
f 20 22 w
t 19 157 w
18 3

50 35
9
h 32 19 w
f 21 32 w
h 4 17 e
r 24 12 s
f 33 21 e
t 31 27 s
t 46 8 w
r 17 27 w
f 48 20 e
11 3

36 69
6
f 17 68 e
t 20 67 w
h 30 31 s
f 8 64 s
f 3 50 e
h 1 64 e
42 6

41 69
8
t 39 17 w
f 28 19 e
t 0 1 n
f 9 16 w
f 5 33 w
f 30 32 e
t 3 44 n
t 33 51 s
31 3

20 111
3
f 15 47 n
r 2 105 n
t 4 24 s
8 8

48 170
7
h 19 53 n
h 43 6 s
h 28 168 s
t 23 30 n
f 8 19 w
r 13 155 s
t 39 55 e
4 8

23 167
6
r 12 39 e
t 11 14 n
r 11 47 n
h 0 89 s
r 15 82 e
h 13 153 w
39 3

21 152
3
h 10 10 e
h 10 57 w
h 13 137 w
43 6

26 18
8
r 22 14 n
r 18 7 w
h 4 4 s
f 18 16 e
t 25 17 s
r 17 13 n
t 21 0 s
h 12 3 n
45 9

43 199
2
h 37 144 e
t 15 42 e
8 2

36 172
8
r 30 161 w
h 25 117 w
r 33 118 e
r 21 43 e
r 5 142 w
t 4 148 n
r 8 144 n
f 2 31 w
45 1

17 78
4
r 3 31 s
r 10 17 s
t 2 71 n
f 9 62 w
17 3

48 60
1
f 7 28 w
30 8

29 9
9
h 21 6 e
r 27 6 n
f 28 4 n
f 28 5 n
h 25 4 n
r 14 5 n
f 13 6 n
r 2 8 e
h 10 5 e
12 10

4 178
10
t 2 116 e
r 1 166 e
f 0 121 w
r 3 12 e
f 2 172 s
t 2 142 e
f 2 159 w
h 3 118 w
t 3 79 e
f 3 134 w
29 8

21 80
9
f 3 68 n
f 18 20 n
r 19 76 e
r 5 21 e
h 9 5 n
t 19 0 n
r 18 72 n
f 2 0 e
h 6 67 e
37 8

40 31
4
t 10 25 s
f 3 21 e
h 33 27 s
h 20 16 s
6 1

4 189
2
t 2 39 w
t 2 84 w
1 8

6 161
9
h 3 12 s
t 3 109 w
f 0 19 s
h 0 41 w
r 4 160 s
h 3 14 s
f 3 108 s
f 2 117 w
f 5 151 e
22 4

39 54
7
h 16 28 n
r 28 27 e
t 17 45 n
r 28 4 w
t 33 50 e
h 6 3 n
t 10 41 s
14 4

14 76
2
t 2 11 s
f 11 30 s
4 5

16 118
6
r 12 79 e
h 12 110 n
f 6 76 w
t 13 115 w
r 0 117 s
r 12 25 w
23 5

22 34
5
f 0 24 w
t 2 31 e
r 11 3 w
f 20 16 e
r 16 19 n
23 5

23 14
4
f 3 4 s
h 12 6 n
r 10 12 s
h 20 6 e
14 4

21 92
3
t 9 2 e
t 8 33 n
r 10 21 n
23 4

22 39
5
f 6 0 e
h 10 3 e
f 11 21 s
h 7 33 e
f 12 12 w
4 4

25 168
9
r 20 120 n
r 9 156 s
f 10 87 e
r 4 28 w
f 6 115 w
t 11 49 n
h 18 40 n
r 16 40 s
t 16 84 n
34 9

23 174
3
h 8 138 e
r 4 27 e
h 4 153 e
35 4
